…
In the next section we learn how useful this approach can be when summarizing by group.

##4.7.3 Group then summarize with group_by

A common operation in data exploration is to first split data into groups and then compute summaries for each group. For example, we may want to compute the average and standard deviation for men’s and women’s heights separately. The group_by function helps us do this.

If we type this:


```r
heights %>% group_by(sex)
```

```
## # A tibble: 1,050 x 2
## # Groups:   sex [2]
##    sex    height
##    <fct>   <dbl>
##  1 Male       75
##  2 Male       70
##  3 Male       68
##  4 Male       74
##  5 Male       61
##  6 Female     65
##  7 Female     66
##  8 Female     62
##  9 Female     66
## 10 Male       67
## # ... with 1,040 more rows
```

```r
#> # A tibble: 1,050 x 2
#> # Groups:   sex [2]
#>   sex   height
#>   <fct>  <dbl>
#> 1 Male      75
#> 2 Male      70
#> 3 Male      68
#> 4 Male      74
#> 5 Male      61
#> # … with 1,045 more rows
```
…
#4.11 Tibbles

Tidy data must be stored in data frames. We introduced the data frame in Section 2.4.1 and have been using the murders data frame throughout the book. In Section 4.7.3 we introduced the group_by function, which permits stratifying data before computing summary statistics. But where is the group information stored in the data frame?


```r
murders %>% group_by(region)
```

```
## # A tibble: 51 x 6
## # Groups:   region [4]
##    state                abb   region    population total  rate
##    <chr>                <chr> <fct>          <dbl> <dbl> <dbl>
##  1 Alabama              AL    South        4779736   135  2.82
##  2 Alaska               AK    West          710231    19  2.68
##  3 Arizona              AZ    West         6392017   232  3.63
##  4 Arkansas             AR    South        2915918    93  3.19
##  5 California           CA    West        37253956  1257  3.37
##  6 Colorado             CO    West         5029196    65  1.29
##  7 Connecticut          CT    Northeast    3574097    97  2.71
##  8 Delaware             DE    South         897934    38  4.23
##  9 District of Columbia DC    South         601723    99 16.5 
## 10 Florida              FL    South       19687653   669  3.40
## # ... with 41 more rows
```

```r
#> # A tibble: 51 x 6
#> # Groups:   region [4]
#>   state      abb   region population total  rate
#>   <chr>      <chr> <fct>       <dbl> <dbl> <dbl>
#> 1 Alabama    AL    South     4779736   135  2.82
#> 2 Alaska     AK    West       710231    19  2.68
#> 3 Arizona    AZ    West      6392017   232  3.63
#> 4 Arkansas   AR    South     2915918    93  3.19
#> 5 California CA    West     37253956  1257  3.37
#> # … with 46 more rows
```
…
```r
# b. murders is in tidy format and is stored in a data frame.
```

2. Use as_tibble to convert the murders data table into a tibble and save it in an object called murders_tibble.


```r
murders_tibble <- as_tibble(murders)
murders_tibble
```

```
## # A tibble: 51 x 6
##    state                abb   region    population total  rate
##    <chr>                <chr> <fct>          <dbl> <dbl> <dbl>
##  1 Alabama              AL    South        4779736   135  2.82
##  2 Alaska               AK    West          710231    19  2.68
##  3 Arizona              AZ    West         6392017   232  3.63
##  4 Arkansas             AR    South        2915918    93  3.19
##  5 California           CA    West        37253956  1257  3.37
##  6 Colorado             CO    West         5029196    65  1.29
##  7 Connecticut          CT    Northeast    3574097    97  2.71
##  8 Delaware             DE    South         897934    38  4.23
##  9 District of Columbia DC    South         601723    99 16.5 
## 10 Florida              FL    South       19687653   669  3.40
## # ... with 41 more rows
```

3. Use the group_by function to convert murders into a tibble that is grouped by region.


```r
murders %>% group_by(region)
```

```
## # A tibble: 51 x 6
## # Groups:   region [4]
##    state                abb   region    population total  rate
##    <chr>                <chr> <fct>          <dbl> <dbl> <dbl>
##  1 Alabama              AL    South        4779736   135  2.82
##  2 Alaska               AK    West          710231    19  2.68
##  3 Arizona              AZ    West         6392017   232  3.63
##  4 Arkansas             AR    South        2915918    93  3.19
##  5 California           CA    West        37253956  1257  3.37
##  6 Colorado             CO    West         5029196    65  1.29
##  7 Connecticut          CT    Northeast    3574097    97  2.71
##  8 Delaware             DE    South         897934    38  4.23
##  9 District of Columbia DC    South         601723    99 16.5 
## 10 Florida              FL    South       19687653   669  3.40
## # ... with 41 more rows
```
…
5. Use the map_df to create a data frame with three columns named n, s_n, and s_n_2. The first column should contain the numbers 1 through 100. The second and third columns should each contain the sum of 1 through n with n the row number.


```r
n = 1:100
compute_s_n <- function(n){
  x <- 1:100
  tibble(n, s_n = sum(1:n), s_n_2 = sum(1:n))
}
map_df(n, compute_s_n)
```

```
## # A tibble: 100 x 3
##        n   s_n s_n_2
##    <int> <int> <int>
##  1     1     1     1
##  2     2     3     3
##  3     3     6     6
##  4     4    10    10
##  5     5    15    15
##  6     6    21    21
##  7     7    28    28
##  8     8    36    36
##  9     9    45    45
## 10    10    55    55
## # ... with 90 more rows
```
