…
##3.1. Annotation of transcripts in our genome

1. Computes the number of transcripts per gene. What is the mean number of transcripts per gene? What is the quantile (25%, 50%, 75%) for these numbers? Which gene has the greatest number of transcript?


```r
# Compute the number of transcripts per gene.
d2 <- d %>% filter(feature_type == 'transcript')
d2 <- d2 %>%
    mutate(gene_id = as.character(do.call(rbind.data.frame, strsplit(d2$info, '; transcript_id\\s+"'))[[1]]))
d2 %>% group_by(gene_id) %>% count()
```

```
## # A tibble: 60,603 x 2
## # Groups:   gene_id [60,603]
##    gene_id                              n
##    <chr>                            <int>
##  1 "gene_id \"ENSG00000000003.14\""     3
##  2 "gene_id \"ENSG00000000005.6\""      1
##  3 "gene_id \"ENSG00000000419.12\""     2
##  4 "gene_id \"ENSG00000000457.14\""     3
##  5 "gene_id \"ENSG00000000460.17\""     5
##  6 "gene_id \"ENSG00000000938.13\""     3
##  7 "gene_id \"ENSG00000000971.15\""     3
##  8 "gene_id \"ENSG00000001036.13\""     1
##  9 "gene_id \"ENSG00000001084.13\""     5
## 10 "gene_id \"ENSG00000001167.14\""     2
## # ... with 60,593 more rows
```
```r
# What is the mean number of transcripts per gene?
d2 %>% group_by(gene_id) %>% count() %>% pull(n) %>% mean()
```

```
## [1] 1.7861
```

```r
d2 %>% group_by(gene_id) %>% count()
```

```
## # A tibble: 60,603 x 2
## # Groups:   gene_id [60,603]
##    gene_id                              n
##    <chr>                            <int>
##  1 "gene_id \"ENSG00000000003.14\""     3
##  2 "gene_id \"ENSG00000000005.6\""      1
##  3 "gene_id \"ENSG00000000419.12\""     2
##  4 "gene_id \"ENSG00000000457.14\""     3
##  5 "gene_id \"ENSG00000000460.17\""     5
##  6 "gene_id \"ENSG00000000938.13\""     3
##  7 "gene_id \"ENSG00000000971.15\""     3
##  8 "gene_id \"ENSG00000001036.13\""     1
##  9 "gene_id \"ENSG00000001084.13\""     5
## 10 "gene_id \"ENSG00000001167.14\""     2
## # ... with 60,593 more rows
```
…
2. Compute the number of transcripts per gene among gene biotypes. For example, compare the number of transcript per gene between protein-coding genes, long noncoding genes, pseudogenes.


```r
d2 <- d2 %>%
mutate(gene_biotype = as.character(do.call(rbind.data.frame, strsplit(d2$info,'gene_type\\s+"'))[[2]]))
d2 <- d2%>%
mutate(gene_biotype = as.character(do.call(rbind.data.frame, strsplit(d2$gene_biotype, '\\"'))[[1]]))
d2 %>%
    group_by(gene_biotype) %>%
    count()
```

```
## # A tibble: 40 x 2
## # Groups:   gene_biotype [40]
##    gene_biotype        n
##    <chr>           <int>
##  1 IG_C_gene          14
##  2 IG_C_pseudogene     9
##  3 IG_D_gene          37
##  4 IG_J_gene          18
##  5 IG_J_pseudogene     3
##  6 IG_pseudogene       1
##  7 IG_V_gene         144
##  8 IG_V_pseudogene   188
##  9 lncRNA          24993
## 10 miRNA            1881
## # ... with 30 more rows
```

3. Final task is to compute the number of transcripts per gene per chromosome.


```r
d2 %>% group_by(chrom, gene_id) %>% count()
```

```
## # A tibble: 60,603 x 3
## # Groups:   chrom, gene_id [60,603]
##    chrom gene_id                              n
##    <chr> <chr>                            <int>
##  1 chr1  "gene_id \"ENSG00000000457.14\""     3
##  2 chr1  "gene_id \"ENSG00000000460.17\""     5
##  3 chr1  "gene_id \"ENSG00000000938.13\""     3
##  4 chr1  "gene_id \"ENSG00000000971.15\""     3
##  5 chr1  "gene_id \"ENSG00000001460.18\""     3
##  6 chr1  "gene_id \"ENSG00000001461.17\""     4
##  7 chr1  "gene_id \"ENSG00000004455.16\""     8
##  8 chr1  "gene_id \"ENSG00000004487.16\""     3
##  9 chr1  "gene_id \"ENSG00000006555.11\""     2
## 10 chr1  "gene_id \"ENSG00000007341.19\""     6
## # ... with 60,593 more rows
```
…
3. Is the distribution of gene length differed by gene biotype? Please calculate the quantiles (0%, 25%, 50%, 75%, 100%) of the gene length for each group.


```r
d %>%
    group_by(gene_type) %>%
    summarize(distribution = quantile(width, ))
```

```
## `summarise()` has grouped output by 'gene_type'. You can override using the `.groups` argument.
```

```
## # A tibble: 200 x 2
## # Groups:   gene_type [40]
##    gene_type       distribution
##    <chr>                  <dbl>
##  1 IG_C_gene                 3 
##  2 IG_C_gene                92 
##  3 IG_C_gene               312.
##  4 IG_C_gene               336 
##  5 IG_C_gene              8914 
##  6 IG_C_pseudogene          34 
##  7 IG_C_pseudogene         293 
##  8 IG_C_pseudogene         316 
##  9 IG_C_pseudogene         424 
## 10 IG_C_pseudogene        5211 
## # ... with 190 more rows
```
…
2. From the first question, please count the number of transcript for each TSL by gene biotype.


```r
d2 %>%
    group_by(transcript_support_level, gene_type) %>%
    count()
```

```
## # A tibble: 91 x 3
## # Groups:   transcript_support_level, gene_type [91]
##    transcript_support_level gene_type                              n
##    <chr>                    <chr>                              <int>
##  1 1                        IG_C_gene                              1
##  2 1                        lncRNA                              1620
##  3 1                        polymorphic_pseudogene                30
##  4 1                        protein_coding                     29783
##  5 1                        transcribed_processed_pseudogene      42
##  6 1                        transcribed_unitary_pseudogene        58
##  7 1                        transcribed_unprocessed_pseudogene   267
##  8 2                        lncRNA                              2970
##  9 2                        polymorphic_pseudogene                 3
## 10 2                        protein_coding                     10104
## # ... with 81 more rows
```
…
2. Please count the number of hgnc by gene biotypes.


```r
df2 <- df %>% filter(isHgnc != 0)
df2 %>%
    group_by(gene_type) %>%
    count()
```

```
## # A tibble: 36 x 2
## # Groups:   gene_type [36]
##    gene_type           n
##    <chr>           <int>
##  1 IG_C_gene         176
##  2 IG_C_pseudogene    33
##  3 IG_D_gene         152
##  4 IG_J_gene          76
##  5 IG_J_pseudogene     9
##  6 IG_V_gene        1101
##  7 IG_V_pseudogene   653
##  8 lncRNA          51105
##  9 miRNA            5568
## 10 misc_RNA         3099
## # ... with 26 more rows
```
…
3. Please count the number of transcripts by chromosomes.


```r
d2 %>%
    group_by(seqnames) %>%
    count()
```

```
## # A tibble: 25 x 2
## # Groups:   seqnames [25]
##    seqnames     n
##    <fct>    <int>
##  1 chr1      9827
##  2 chr2      7432
##  3 chr3      6157
##  4 chr4      4662
##  5 chr5      5203
##  6 chr6      5455
##  7 chr7      5292
##  8 chr8      4350
##  9 chr9      3949
## 10 chr10     4157
## # ... with 15 more rows
```

##3.6. Autosomal vs. Sex chromosomes.

1. Please calculate the number of genes per chromosome.


```r
d3 <- d %>% filter(type == 'gene')
d3 %>%
    group_by(seqnames) %>%
    count()
```

```
## # A tibble: 25 x 2
## # Groups:   seqnames [25]
##    seqnames     n
##    <fct>    <int>
##  1 chr1      5471
##  2 chr2      4196
##  3 chr3      3185
##  4 chr4      2651
##  5 chr5      2983
##  6 chr6      3059
##  7 chr7      3014
##  8 chr8      2482
##  9 chr9      2327
## 10 chr10     2332
## # ... with 15 more rows
```
…
3. Please divide the genes into groups protein coding and long noncoding, and then compare the number of genes in each chromosomes within groups.


```r
d3 %>%
    filter(gene_type %in% c('protein_coding', 'lncRNA')) %>% 
               group_by(gene_type, seqnames) %>% count()
```

```
## # A tibble: 49 x 3
## # Groups:   gene_type, seqnames [49]
##    gene_type seqnames     n
##    <chr>     <fct>    <int>
##  1 lncRNA    chr1      1416
##  2 lncRNA    chr2      1241
##  3 lncRNA    chr3       861
##  4 lncRNA    chr4       790
##  5 lncRNA    chr5       950
##  6 lncRNA    chr6       826
##  7 lncRNA    chr7       720
##  8 lncRNA    chr8       831
##  9 lncRNA    chr9       555
## 10 lncRNA    chr10      695
## # ... with 39 more rows
```
